D:\JoseAlvear\Postulaciones\PruebaTecnicaPichincha\banco\src\main\java\com\prueba\banco\controllers\CuentaController.java
D:\JoseAlvear\Postulaciones\PruebaTecnicaPichincha\banco\src\main\java\com\prueba\banco\repositories\CuentaRepository.java
D:\JoseAlvear\Postulaciones\PruebaTecnicaPichincha\banco\src\main\java\com\prueba\banco\services\CuentaServiceImpl.java
D:\JoseAlvear\Postulaciones\PruebaTecnicaPichincha\banco\src\main\java\com\prueba\banco\services\CuentaService.java
D:\JoseAlvear\Postulaciones\PruebaTecnicaPichincha\banco\src\main\java\com\prueba\banco\controllers\ReporteController.java
D:\JoseAlvear\Postulaciones\PruebaTecnicaPichincha\banco\src\main\java\com\prueba\banco\entity\Movimientos.java
D:\JoseAlvear\Postulaciones\PruebaTecnicaPichincha\banco\src\main\java\com\prueba\banco\entity\Cliente.java
D:\JoseAlvear\Postulaciones\PruebaTecnicaPichincha\banco\src\main\java\com\prueba\banco\request\CuentaResquest.java
D:\JoseAlvear\Postulaciones\PruebaTecnicaPichincha\banco\src\main\java\com\prueba\banco\services\ClienteServiceImpl.java
D:\JoseAlvear\Postulaciones\PruebaTecnicaPichincha\banco\src\main\java\com\prueba\banco\services\ClienteService.java
D:\JoseAlvear\Postulaciones\PruebaTecnicaPichincha\banco\src\main\java\com\prueba\banco\entity\Persona.java
D:\JoseAlvear\Postulaciones\PruebaTecnicaPichincha\banco\src\main\java\com\prueba\banco\services\MovimientoService.java
D:\JoseAlvear\Postulaciones\PruebaTecnicaPichincha\banco\src\main\java\com\prueba\banco\services\PersonaService.java
D:\JoseAlvear\Postulaciones\PruebaTecnicaPichincha\banco\src\main\java\com\prueba\banco\controllers\MovimientoController.java
D:\JoseAlvear\Postulaciones\PruebaTecnicaPichincha\banco\src\main\java\com\prueba\banco\repositories\MovimientoRepository.java
D:\JoseAlvear\Postulaciones\PruebaTecnicaPichincha\banco\src\main\java\com\prueba\banco\responde\EstadoCuentaResponse.java
D:\JoseAlvear\Postulaciones\PruebaTecnicaPichincha\banco\src\main\java\com\prueba\banco\BancoApplication.java
D:\JoseAlvear\Postulaciones\PruebaTecnicaPichincha\banco\src\main\java\com\prueba\banco\services\MovimientoServiceImpl.java
D:\JoseAlvear\Postulaciones\PruebaTecnicaPichincha\banco\src\main\java\com\prueba\banco\controllers\ClienteController.java
D:\JoseAlvear\Postulaciones\PruebaTecnicaPichincha\banco\src\main\java\com\prueba\banco\repositories\ReporteRepository.java
D:\JoseAlvear\Postulaciones\PruebaTecnicaPichincha\banco\src\main\java\com\prueba\banco\responde\MovimientoResponse.java
D:\JoseAlvear\Postulaciones\PruebaTecnicaPichincha\banco\src\main\java\com\prueba\banco\repositories\ClienteRepository.java
D:\JoseAlvear\Postulaciones\PruebaTecnicaPichincha\banco\src\main\java\com\prueba\banco\services\ReporteService.java
D:\JoseAlvear\Postulaciones\PruebaTecnicaPichincha\banco\src\main\java\com\prueba\banco\request\MovimientoRequest.java
D:\JoseAlvear\Postulaciones\PruebaTecnicaPichincha\banco\src\main\java\com\prueba\banco\request\ClienteRequest.java
D:\JoseAlvear\Postulaciones\PruebaTecnicaPichincha\banco\src\main\java\com\prueba\banco\entity\Cuenta.java
D:\JoseAlvear\Postulaciones\PruebaTecnicaPichincha\banco\src\main\java\com\prueba\banco\services\ReporteServiceImpl.java
D:\JoseAlvear\Postulaciones\PruebaTecnicaPichincha\banco\src\main\java\com\prueba\banco\repositories\PersonaRepository.java
